Quickly creating lots of plots using ggplot2 and purrr - Fledgling Statistician
…
plots_df

## # A tibble: 35 x 4
##    category      state data               line_plot
##    <chr>         <chr> <list>             <list>   
##  1 hrs_lpn       AK    <tibble [365 x 3]> <S3: gg> 
##  2 hrs_lpn       AL    <tibble [365 x 3]> <S3: gg> 
##  3 hrs_lpn       AR    <tibble [365 x 3]> <S3: gg> 
##  4 hrs_lpn       MA    <tibble [365 x 3]> <S3: gg> 
##  5 hrs_lpn       WV    <tibble [365 x 3]> <S3: gg> 
##  6 hrs_lpn_admin AK    <tibble [365 x 3]> <S3: gg> 
##  7 hrs_lpn_admin AL    <tibble [365 x 3]> <S3: gg> 
##  8 hrs_lpn_admin AR    <tibble [365 x 3]> <S3: gg> 
##  9 hrs_lpn_admin MA    <tibble [365 x 3]> <S3: gg> 
## 10 hrs_lpn_admin WV    <tibble [365 x 3]> <S3: gg> 
## # ... with 25 more rows
…
