…
inj.data

## # A tibble: 680 x 2
##    pos   injured
##    <chr>   <dbl>
##  1 RB       0   
##  2 QB       0   
##  3 TE       0   
##  4 RB       1.00
##  5 RB       0   
##  6 WR       0   
##  7 WR       1.00
##  8 TE       1.00
##  9 RB       1.00
## 10 RB       0   
## # ... with 670 more rows
…
