…
game

## # A tibble: 4,790 x 17
##      gid  seas    wk day   v     h     stad   temp  humd  wspd wdir  cond 
##    <int> <int> <int> <chr> <chr> <chr> <chr> <int> <int> <int> <chr> <chr>
##  1     1  2000     1 SUN   SF    ATL   Geor~    79    NA    NA <NA>  Dome 
##  2     2  2000     1 SUN   JAC   CLE   Clev~    78    63     9 NE    Sunny
##  3     3  2000     1 SUN   PHI   DAL   Texa~   109    19     5 S     Sunny
##  4     4  2000     1 SUN   NYJ   GB    Lamb~    77    66     5 E     Most~
##  5     5  2000     1 SUN   IND   KC    Arro~    90    50     8 E     Most~
##  6     6  2000     1 SUN   SEA   MIA   Pro ~    89    59    13 E     Sunny
##  7     7  2000     1 SUN   CHI   MIN   Metr~    65    NA    NA <NA>  Dome 
##  8     8  2000     1 SUN   TB    NE    Foxb~    71    93     5 VAR   Clou~
##  9     9  2000     1 SUN   DET   NO    Loui~    89    NA    NA <NA>  Dome 
## 10    10  2000     1 SUN   ARI   NYG   Gian~    80    79     3 VAR   Part~
## # ... with 4,780 more rows, and 5 more variables: surf <chr>, ou <dbl>,
## #   sprv <dbl>, ptsv <int>, ptsh <int>
…
#Age variable
full.data$age <- full.data$year - lubridate::year(as.Date(full.data$dob, "%m/%d/%Y"))

The table I’ll use for analysis is printed here.

full.data

## # A tibble: 1,908 x 10
## # Groups:   year, player, pname, pos1, height, weight, dob [1,908]
##     year player  pname    pos1  height weight dob    start games.inj   age
##    <int> <chr>   <chr>    <chr>  <int>  <int> <chr>  <int>     <int> <dbl>
##  1  2015 AA-0025 A.Abdul~ RB        69    205 6/13/~  2015         0  22.0
##  2  2015 AA-1350 A.Andre~ RB        70    225 10/15~  2014         1  23.0
##  3  2015 AB-1975 A.Blue   RB        74    223 4/27/~  2014         0  24.0
##  4  2015 AB-2000 A.Boldin WR        73    220 10/3/~  2003         0  35.0
##  5  2015 AB-2600 A.Brads~ RB        69    214 3/19/~  2007         0  29.0
##  6  2015 AB-3500 A.Brown  WR        70    186 7/10/~  2010         0  27.0
##  7  2015 AC-0100 A.Caldw~ WR        72    200 4/15/~  2008         0  30.0
##  8  2015 AC-1650 A.Cleve~ TE        77    258 3/21/~  2014         0  23.0
##  9  2015 AC-2350 A.Cooper WR        73    211 6/17/~  2015         0  21.0
## 10  2015 AD-0100 A.Dalton QB        74    215 10/29~  2011         3  28.0
## # ... with 1,898 more rows
…
